Introduction to tsbox • tsbox
…
Data frames must be in a long format, with a single value columns
only.

dta_wide <- ts_wide(ts_tbl(ts_c(mdeaths, fdeaths)))
# # A tibble: 72 × 3
#    time       mdeaths fdeaths
#    <date>       <dbl>   <dbl>
#  1 1974-01-01    2134     901
#  2 1974-02-01    1863     689
#  3 1974-03-01    1877     827
#  4 1974-04-01    1877     677
#  5 1974-05-01    1492     522
#  6 1974-06-01    1249     406
#  7 1974-07-01    1280     441
#  8 1974-08-01    1131     393
#  9 1974-09-01    1209     387
# 10 1974-10-01    1492     582
# # … with 62 more rows
…
